Rexercise_week4
…
rosa <- rosa %>%
    rowwise() %>% #one value per row
    mutate(
        stepMean = mean(c(nMinus3, nMinus2, nMinus1, nPlus1, nPlus2, nPlus3))
    ) %>%
    ungroup() #because of the rowwise! 

rosa

Simple feature collection with 696 features and 13 fields
Geometry type: POINT
Dimension:     XY
Bounding box:  xmin: 2569231 ymin: 1204443 xmax: 2570395 ymax: 1206051
Projected CRS: CH1903+ / LV95
# A tibble: 696 × 14
   TierID TierName CollarID DatetimeUTC                E        N
   <chr>  <chr>       <dbl> <dttm>                 <dbl>    <dbl>
 1 016A   Rosa        13972 2014-11-07 07:45:44 2570385. 1204812.
 2 016A   Rosa        13972 2014-11-07 08:00:10 2570389. 1204821.
 3 016A   Rosa        13972 2014-11-07 08:15:18 2570375. 1204787.
 4 016A   Rosa        13972 2014-11-07 08:30:23 2570387. 1204828.
 5 016A   Rosa        13972 2014-11-07 08:46:08 2570387. 1204853.
 6 016A   Rosa        13972 2014-11-07 09:00:11 2570387. 1204857.
 7 016A   Rosa        13972 2014-11-07 09:15:15 2570392. 1204821.
 8 016A   Rosa        13972 2014-11-07 09:30:11 2570395. 1204818.
 9 016A   Rosa        13972 2014-11-07 09:45:16 2570391. 1204838.
10 016A   Rosa        13972 2014-11-07 10:00:44 2569917. 1205031.
# ℹ 686 more rows
# ℹ 8 more variables: geometry <POINT [m]>, nMinus3 <dbl>, nMinus2 <dbl>,
#   nMinus1 <dbl>, nPlus1 <dbl>, nPlus2 <dbl>, nPlus3 <dbl>, stepMean <dbl>
…
